Sample	PercentMapped	PercentProtCoding
1	99.38\%	97.59\%
2	99.15\%	98.10\%
3	99.64\%	98.60\%
4	99.59\%	98.92\%
5	99.10\%	98.48\%
6	99.16\%	98.26\%
7	99.61\%	98.82\%
8	99.53\%	99.07\%
9	99.62\%	98.84\%
10	99.59\%	99.24\%
11	99.62\%	99.14\%
12	99.60\%	98.94\%
13	99.28\%	98.88\%
14	99.16\%	98.88\%
15	99.29\%	98.70\%
16	99.31\%	99.09\%
17	99.10\%	98.86\%
18	99.23\%	98.59\%
